[gd_scene load_steps=3 format=2]

[ext_resource path="res://ground tileset_tres.tres" type="TileSet" id=1]
[ext_resource path="res://STAGES/1st stage/level 1/Map pngs/Level 3.png" type="Texture" id=2]

[node name="level_3" type="Node2D"]

[node name="Level3" type="Sprite" parent="."]
position = Vector2( 512, 304 )
texture = ExtResource( 2 )

[node name="TileMap" type="TileMap" parent="."]
visible = false
tile_set = ExtResource( 1 )
cell_size = Vector2( 16, 16 )
show_collision = true
format = 1
tile_data = PoolIntArray( 196631, 0, 0, 196632, 0, 0, 196633, 0, 0, 196634, 0, 0, 196635, 0, 0, 196636, 0, 0, 196637, 0, 0, 196638, 0, 0, 196639, 0, 0, 196640, 0, 0, 196641, 0, 0, 196642, 0, 0, 196643, 0, 0, 196644, 0, 0, 196645, 0, 0, 196646, 0, 0, 196647, 0, 0, 196648, 0, 0, 196649, 0, 0, 196650, 0, 0, 196651, 0, 0, 262166, 0, 0, 262167, 0, 0, 262187, 0, 0, 327701, 0, 0, 327702, 0, 0, 327724, 0, 0, 327725, 0, 0, 327726, 0, 0, 327727, 0, 0, 327728, 0, 0, 327729, 0, 0, 393236, 0, 0, 393237, 0, 0, 393265, 0, 0, 458770, 0, 0, 458771, 0, 0, 458772, 0, 0, 458801, 0, 0, 458802, 0, 0, 458803, 0, 0, 524305, 0, 0, 524306, 0, 0, 524307, 0, 0, 524339, 0, 0, 524340, 0, 0, 589833, 0, 0, 589834, 0, 0, 589835, 0, 0, 589836, 0, 0, 589837, 0, 0, 589838, 0, 0, 589839, 0, 0, 589840, 0, 0, 589841, 0, 0, 589842, 0, 0, 589876, 0, 0, 589877, 0, 0, 655369, 0, 0, 655413, 0, 0, 720905, 0, 0, 720950, 0, 0, 786441, 0, 0, 786486, 0, 0, 851976, 0, 0, 851977, 0, 0, 852022, 0, 0, 917511, 0, 0, 917512, 0, 0, 917513, 0, 0, 917558, 0, 0, 983046, 0, 0, 983047, 0, 0, 983094, 0, 0, 1048581, 0, 0, 1048582, 0, 0, 1048630, 0, 0, 1114116, 0, 0, 1114117, 0, 0, 1114166, 0, 0, 1179651, 0, 0, 1179652, 0, 0, 1179702, 0, 0, 1245186, 0, 0, 1245187, 0, 0, 1245238, 0, 0, 1310721, 0, 0, 1310722, 0, 0, 1310774, 0, 0, 1376256, 0, 0, 1376257, 0, 0, 1376286, 0, 0, 1376287, 0, 0, 1376288, 0, 0, 1376289, 0, 0, 1376290, 0, 0, 1376291, 0, 0, 1376292, 0, 0, 1376293, 0, 0, 1376294, 0, 0, 1376295, 0, 0, 1376296, 0, 0, 1376297, 0, 0, 1376298, 0, 0, 1376299, 0, 0, 1376300, 0, 0, 1376301, 0, 0, 1376302, 0, 0, 1376303, 0, 0, 1376304, 0, 0, 1376305, 0, 0, 1376306, 0, 0, 1376307, 0, 0, 1376308, 0, 0, 1376309, 0, 0, 1376310, 0, 0, 1441822, 0, 0, 1507354, 0, 0, 1507355, 0, 0, 1507356, 0, 0, 1507357, 0, 0, 1507358, 0, 0, 1572894, 0, 0, 1572895, 0, 0, 1572896, 0, 0, 1572897, 0, 0, 1572898, 0, 0, 1572899, 0, 0, 1572900, 0, 0, 1572901, 0, 0, 1572902, 0, 0, 1572903, 0, 0, 1572904, 0, 0, 1572905, 0, 0, 1638400, 0, 0, 1638401, 0, 0, 1638402, 0, 0, 1638403, 0, 0, 1638404, 0, 0, 1638405, 0, 0, 1638406, 0, 0, 1638407, 0, 0, 1638408, 0, 0, 1638409, 0, 0, 1638410, 0, 0, 1638441, 0, 0, 1703946, 0, 0, 1703977, 0, 0, 1769482, 0, 0, 1769496, 0, 0, 1769497, 0, 0, 1769513, 0, 0, 1835018, 0, 0, 1835019, 0, 0, 1835020, 0, 0, 1835021, 0, 0, 1835022, 0, 0, 1835023, 0, 0, 1835024, 0, 0, 1835025, 0, 0, 1835026, 0, 0, 1835027, 0, 0, 1835028, 0, 0, 1835029, 0, 0, 1835030, 0, 0, 1835031, 0, 0, 1835032, 0, 0, 1835033, 0, 0, 1835034, 0, 0, 1835035, 0, 0, 1835036, 0, 0, 1835037, 0, 0, 1835038, 0, 0, 1835039, 0, 0, 1835040, 0, 0, 1835041, 0, 0, 1835042, 0, 0, 1835043, 0, 0, 1835044, 0, 0, 1835045, 0, 0, 1835046, 0, 0, 1835047, 0, 0, 1835048, 0, 0, 1835049, 0, 0 )
