[gd_scene load_steps=3 format=2]

[sub_resource type="StyleBoxFlat" id=1]
bg_color = Color( 1, 0, 0, 1 )

[sub_resource type="StyleBoxFlat" id=2]
bg_color = Color( 0, 0.231373, 1, 1 )

[node name="UpperLeft" type="CanvasLayer"]

[node name="ProgressBar" type="ProgressBar" parent="."]
margin_left = 2.0
margin_top = 2.0
margin_right = 143.0
margin_bottom = 16.0
custom_styles/fg = SubResource( 1 )
value = 100.0
percent_visible = false

[node name="ProgressBar2" type="ProgressBar" parent="."]
margin_left = 2.0
margin_top = 16.0
margin_right = 121.0
margin_bottom = 30.0
custom_styles/fg = SubResource( 2 )
value = 100.0
percent_visible = false
